[
  {
    "name": "허니오리지날",
    "brand" : "교촌치킨",
    "category": "chicken"
  },
  {
    "name": "레드오리지날",
    "brand" : "교촌치킨",
    "category": "chicken"
  },
  {
    "name": "교촌오리지날",
    "brand" : "교촌치킨",
    "category": "chicken"
  },
  {
    "name": "블랙시크릿콤보",
    "brand" : "교촌치킨",
    "category": "chicken"
  },
  {
    "name": "블랙시크릿오리지날",
    "brand" : "교촌치킨",
    "category": "chicken"
  },
  {
    "name": "블랙시크릿순살",
    "brand" : "교촌치킨",
    "category": "chicken"
  },
  {
    "name": "교촌콤보",
    "brand" : "교촌치킨",
    "category": "chicken"
  },
  {
    "name": "교촌순살",
    "brand" : "교촌치킨",
    "category": "chicken"
  },
  {
    "name": "교촌윙",
    "brand" : "교촌치킨",
    "category": "chicken"
  },
  {
    "name": "교촌스틱",
    "brand" : "교촌치킨",
    "category": "chicken"
  },
  {
    "name": "허니콤보",
    "brand" : "교촌치킨",
    "category": "chicken"
  },
  {
    "name": "허니순살",
    "brand" : "교촌치킨",
    "category": "chicken"
  },
  {
    "name": "레드콤보",
    "brand" : "교촌치킨",
    "category": "chicken"
  },
  {
    "name": "레드윙",
    "brand" : "교촌치킨",
    "category": "chicken"
  },
  {
    "name": "레드스틱",
    "brand" : "교촌치킨",
    "category": "chicken"
  },
  {
    "name": "레드순살",
    "brand" : "교촌치킨",
    "category": "chicken"
  },
  {
    "name": "리얼후라이드",
    "brand" : "교촌치킨",
    "category": "chicken"
  },
  {
    "name": "살살후라이드",
    "brand" : "교촌치킨",
    "category": "chicken"
  },
  {
    "name": "파채소이살살",
    "brand" : "교촌치킨",
    "category": "chicken"
  },
  {
    "name": "시그니처순살세트",
    "brand" : "교촌치킨",
    "category": "chicken"
  },
  {
    "name": "교촌순살치밥세트",
    "brand" : "교촌치킨",
    "category": "chicken"
  },
  {
    "name": "레드순살치밥세트",
    "brand" : "교촌치킨",
    "category": "chicken"
  },
  {
    "name": "허니순살치면세트",
    "brand" : "교촌치킨",
    "category": "chicken"
  },
  {
    "name": "교촌점보윙",
    "brand" : "교촌치킨",
    "category": "chicken"
  },
  {
    "name": "레드점보윙",
    "brand" : "교촌치킨",
    "category": "chicken"
  },
  {
    "name": "허니점보윙",
    "brand" : "교촌치킨",
    "category": "chicken"
  },
  {
    "name": "다리 허니올리고당 야채\n양념치킨",
    "brand" : "처갓집",
    "category": "chicken"
  },
  {
    "name": "다리 후라이드치킨",
    "brand" : "처갓집",
    "category": "chicken"
  },
  {
    "name": "날개 허니올리고당 야채\n양념치킨",
    "brand" : "처갓집",
    "category": "chicken"
  },
  {
    "name": "날개 후라이드치킨",
    "brand" : "처갓집",
    "category": "chicken"
  },
  {
    "name": "와락윙",
    "brand" : "처갓집",
    "category": "chicken"
  },
  {
    "name": "슈프림양념치킨\n블랙라벨",
    "brand" : "처갓집",
    "category": "chicken"
  },
  {
    "name": "XO양념치킨",
    "brand" : "처갓집",
    "category": "chicken"
  },
  {
    "name": "100% 청양산 고추치킨",
    "brand" : "처갓집",
    "category": "chicken"
  },
  {
    "name": "트러플 슈프림 양념치킨",
    "brand" : "처갓집",
    "category": "chicken"
  },
  {
    "name": "후라이드치킨",
    "brand" : "처갓집",
    "category": "chicken"
  },
  {
    "name": "허니올리고당 야채\n양념치킨",
    "brand" : "처갓집",
    "category": "chicken"
  },
  {
    "name": "매운불 양념치킨",
    "brand" : "처갓집",
    "category": "chicken"
  },
  {
    "name": "슈프림 양념치킨",
    "brand" : "처갓집",
    "category": "chicken"
  },
  {
    "name": "핫슈프림 양념치킨",
    "brand" : "처갓집",
    "category": "chicken"
  },
  {
    "name": "치즈슈프림 양념치킨",
    "brand" : "처갓집",
    "category": "chicken"
  },
  {
    "name": "슈프림골드 양념치킨",
    "brand" : "처갓집",
    "category": "chicken"
  },
  {
    "name": "훈제치킨",
    "brand" : "처갓집",
    "category": "chicken"
  },
  {
    "name": "와락치킨",
    "brand" : "처갓집",
    "category": "chicken"
  },
  {
    "name": "핫불훈제치킨",
    "brand" : "처갓집",
    "category": "chicken"
  },
  {
    "name": "순살 닭강정",
    "brand" : "처갓집",
    "category": "chicken"
  },
  {
    "name": "바삭갈릭",
    "brand" : "BBQ",
    "category": "chicken"
  },
  {
    "name": "단짠갈릭",
    "brand" : "BBQ",
    "category": "chicken"
  },
  {
    "name": "착착갈릭",
    "brand" : "BBQ",
    "category": "chicken"
  },
  {
    "name": "BBQ 양념치킨",
    "brand" : "BBQ",
    "category": "chicken"
  },
  {
    "name": "바사칸 윙",
    "brand" : "BBQ",
    "category": "chicken"
  },
  {
    "name": "활금올리브치킨",
    "brand" : "BBQ",
    "category": "chicken"
  },
  {
    "name": "핫황금올리브치킨",
    "brand" : "BBQ",
    "category": "chicken"
  },
  {
    "name": "크런치 순살크래커",
    "brand" : "BBQ",
    "category": "chicken"
  },
  {
    "name": "파더스치킨(와사비)",
    "brand" : "BBQ",
    "category": "chicken"
  },
  {
    "name": "파더스치킨(로스트 갈릭)",
    "brand" : "BBQ",
    "category": "chicken"
  },
  {
    "name": "황금올리브치킨 블랙페퍼",
    "brand" : "BBQ",
    "category": "chicken"
  },
  {
    "name": "황금올리브치킨 레드착착",
    "brand" : "BBQ",
    "category": "chicken"
  },
  {
    "name": "황금올리브치킨\n크런치 버터",
    "brand" : "BBQ",
    "category": "chicken"
  },
  {
    "name": "자메이카 소떡만나치킨",
    "brand" : "BBQ",
    "category": "chicken"
  },
  {
    "name": "매운양념치킨",
    "brand" : "BBQ",
    "category": "chicken"
  },
  {
    "name": "황올한 깐풍치킨",
    "brand" : "BBQ",
    "category": "chicken"
  },
  {
    "name": "극한왕갈비치킨",
    "brand" : "BBQ",
    "category": "chicken"
  },
  {
    "name": "소이갈릭스",
    "brand" : "BBQ",
    "category": "chicken"
  },
  {
    "name": "자메이카 통다리구이",
    "brand" : "BBQ",
    "category": "chicken"
  },
  {
    "name": "스모크치킨",
    "brand" : "BBQ",
    "category": "chicken"
  },
  {
    "name": "매달구",
    "brand" : "BBQ",
    "category": "chicken"
  },
  {
    "name": "쏘마치",
    "brand" : "BHC",
    "category": "chicken"
  },
  {
    "name": "마법클",
    "brand" : "BHC",
    "category": "chicken"
  },
  {
    "name": "더블팝 순살 양념",
    "brand" : "BHC",
    "category": "chicken"
  },
  {
    "name": "고추장 직화구이",
    "brand" : "BHC",
    "category": "chicken"
  },
  {
    "name": "치퐁당 후라이드",
    "brand" : "BHC",
    "category": "chicken"
  },
  {
    "name": "포테킹 후라이드",
    "brand" : "BHC",
    "category": "chicken"
  },
  {
    "name": "골드킹",
    "brand" : "BHC",
    "category": "chicken"
  },
  {
    "name": "커리퀸",
    "brand" : "BHC",
    "category": "chicken"
  },
  {
    "name": "레드킹",
    "brand" : "BHC",
    "category": "chicken"
  },
  {
    "name": "맛초킹",
    "brand" : "BHC",
    "category": "chicken"
  },
  {
    "name": "뿌링클",
    "brand" : "BHC",
    "category": "chicken"
  },
  {
    "name": "바삭클",
    "brand" : "BHC",
    "category": "chicken"
  },
  {
    "name": "후라이드",
    "brand" : "BHC",
    "category": "chicken"
  },
  {
    "name": "HOT후라이드",
    "brand" : "BHC",
    "category": "chicken"
  },
  {
    "name": "양념치킨",
    "brand" : "BHC",
    "category": "chicken"
  },
  {
    "name": "맵단짠 칩킨",
    "brand" : "Goobne",
    "category": "chicken"
  },
  {
    "name": "오리지널",
    "brand" : "Goobne",
    "category": "chicken"
  },
  {
    "name": "마라천왕",
    "brand" : "Goobne",
    "category": "chicken"
  },
  {
    "name": "고추바사삭",
    "brand" : "Goobne",
    "category": "chicken"
  },
  {
    "name": "마라 고추 바사삭",
    "brand" : "Goobne",
    "category": "chicken"
  },
  {
    "name": "남해마늘바사삭",
    "brand" : "Goobne",
    "category": "chicken"
  },
  {
    "name": "불금치킨",
    "brand" : "Goobne",
    "category": "chicken"
  },
  {
    "name": "치즈바사삭",
    "brand" : "Goobne",
    "category": "chicken"
  },
  {
    "name": "볼케이노",
    "brand" : "Goobne",
    "category": "chicken"
  },
  {
    "name": "오븐 바사삭",
    "brand" : "Goobne",
    "category": "chicken"
  },
  {
    "name": "갈비천왕",
    "brand" : "Goobne",
    "category": "chicken"
  },
  {
    "name": "양념히어로",
    "brand" : "Goobne",
    "category": "chicken"
  },
  {
    "name": "맵단짠 치킨",
    "brand" : "Goobne",
    "category": "chicken"
  },
  {
    "name": "팔도비빔치킨",
    "brand" : "Mexicana",
    "category": "chicken"
  },
  {
    "name": "치토스치킨",
    "brand" : "Mexicana",
    "category": "chicken"
  },
  {
    "name": "피카츄치킨세트",
    "brand" : "Mexicana",
    "category": "chicken"
  },
  {
    "name": "양념치킨",
    "brand" : "Mexicana",
    "category": "chicken"
  },
  {
    "name": "땡초치킨",
    "brand" : "Mexicana",
    "category": "chicken"
  },
  {
    "name": "고매치킨",
    "brand" : "Mexicana",
    "category": "chicken"
  },
  {
    "name": "깐풍요리치킨",
    "brand" : "Mexicana",
    "category": "chicken"
  },
  {
    "name": "리얼치킨꿔바로우",
    "brand" : "Mexicana",
    "category": "chicken"
  },
  {
    "name": "마늘얼마니치킨",
    "brand" : "Mexicana",
    "category": "chicken"
  },
  {
    "name": "모두의마요치킨",
    "brand" : "Mexicana",
    "category": "chicken"
  },
  {
    "name": "강정치킨",
    "brand" : "Mexicana",
    "category": "chicken"
  },
  {
    "name": "후라이드치킨",
    "brand" : "Mexicana",
    "category": "chicken"
  },
  {
    "name": "눈꽃치즈치킨",
    "brand" : "Mexicana",
    "category": "chicken"
  },
  {
    "name": "간장치킨",
    "brand" : "Mexicana",
    "category": "chicken"
  },
  {
    "name": "파닭치킨",
    "brand" : "Mexicana",
    "category": "chicken"
  },
  {
    "name": "허니벌꿀치킨",
    "brand" : "Mexicana",
    "category": "chicken"
  },
  {
    "name": "멕시핀",
    "brand" : "Mexicana",
    "category": "chicken"
  },
  {
    "name": "김미바삭",
    "brand" : "푸라닭",
    "category": "chicken"
  },
  {
    "name": "씬 후라이드",
    "brand" : "푸라닭",
    "category": "chicken"
  },
  {
    "name": "블랙알리오",
    "brand" : "푸라닭",
    "category": "chicken"
  },
  {
    "name": "고추마요 치킨",
    "brand" : "푸라닭",
    "category": "chicken"
  },
  {
    "name": "콘소메이징",
    "brand" : "푸라닭",
    "category": "chicken"
  },
  {
    "name": "마불로 악마",
    "brand" : "푸라닭",
    "category": "chicken"
  },
  {
    "name": "바질페스타",
    "brand" : "푸라닭",
    "category": "chicken"
  },
  {
    "name": "제너럴 핫 치킨",
    "brand" : "푸라닭",
    "category": "chicken"
  },
  {
    "name": "투움바 치킨",
    "brand" : "푸라닭",
    "category": "chicken"
  },
  {
    "name": "달콤양념 치킨",
    "brand" : "푸라닭",
    "category": "chicken"
  },
  {
    "name": "매드갈릭 치킨",
    "brand" : "푸라닭",
    "category": "chicken"
  },
  {
    "name": "파불로 치킨",
    "brand" : "푸라닭",
    "category": "chicken"
  },
  {
    "name": "크랑이치킨",
    "brand" : "60계치킨",
    "category": "chicken"
  },
  {
    "name": "푸하핫치킨",
    "brand" : "60계치킨",
    "category": "chicken"
  },
  {
    "name": "하하핫치킨",
    "brand" : "60계치킨",
    "category": "chicken"
  },
  {
    "name": "크크크치킨",
    "brand" : "60계치킨",
    "category": "chicken"
  },
  {
    "name": "장스치킨",
    "brand" : "60계치킨",
    "category": "chicken"
  },
  {
    "name": "호랑이치킨",
    "brand" : "60계치킨",
    "category": "chicken"
  },
  {
    "name": "고추치킨",
    "brand" : "60계치킨",
    "category": "chicken"
  },
  {
    "name": "간지치킨",
    "brand" : "60계치킨",
    "category": "chicken"
  },
  {
    "name": "더매운고추치킨",
    "brand" : "60계치킨",
    "category": "chicken"
  },
  {
    "name": "6초치킨",
    "brand" : "60계치킨",
    "category": "chicken"
  },
  {
    "name": "후라이드 치킨",
    "brand" : "60계치킨",
    "category": "chicken"
  },
  {
    "name": "양념치킨",
    "brand" : "60계치킨",
    "category": "chicken"
  },
  {
    "name": "열불 품은 3종 치킨",
    "brand" : "노랑통닭",
    "category": "chicken"
  },
  {
    "name": "열불라조 치킨",
    "brand" : "노랑통닭",
    "category": "chicken"
  },
  {
    "name": "칼칼한 청양 치킨",
    "brand" : "노랑통닭",
    "category": "chicken"
  },
  {
    "name": "뿌리노랑 치킨",
    "brand" : "노랑통닭",
    "category": "chicken"
  },
  {
    "name": "노랑 3종 세트",
    "brand" : "노랑통닭",
    "category": "chicken"
  },
  {
    "name": "엄청 큰 후라이드 치킨",
    "brand" : "노랑통닭",
    "category": "chicken"
  },
  {
    "name": "알싸한 마늘 치킨",
    "brand" : "노랑통닭",
    "category": "chicken"
  },
  {
    "name": "맵싸한 고추치킨",
    "brand" : "노랑통닭",
    "category": "chicken"
  },
  {
    "name": "엄청 큰 양념 치킨",
    "brand" : "노랑통닭",
    "category": "chicken"
  },
  {
    "name": "엄청 큰 깐풍 치킨",
    "brand" : "노랑통닭",
    "category": "chicken"
  },
  {
    "name": "바삭 누룽지 치킨",
    "brand" : "노랑통닭",
    "category": "chicken"
  },
  {
    "name": "숯불 직화 닭갈비(간장맛)",
    "brand" : "한솥",
    "category": "korean"
  },
  {
    "name": "숯불 직화 닭갈비(고추장맛)",
    "brand" : "한솥",
    "category": "korean"
  },
  {
    "name": "숯불 직화 닭갈비\n덮밥(간장맛)",
    "brand" : "한솥",
    "category": "korean"
  },
  {
    "name": "송정식 떡갈비 II",
    "brand" : "한솥",
    "category": "korean"
  },
  {
    "name": "이남장 설렁탕",
    "brand" : "한솥",
    "category": "korean"
  },
  {
    "name": "제육돈까스 도련님",
    "brand" : "한솥",
    "category": "korean"
  },
  {
    "name": "사골 조랭이떡 만둣국",
    "brand" : "한솥",
    "category": "korean"
  },
  {
    "name": "해바라기",
    "brand" : "한솥",
    "category": "korean"
  },
  {
    "name": "매화",
    "brand" : "한솥",
    "category": "korean"
  },
  {
    "name": "진달래",
    "brand" : "한솥",
    "category": "korean"
  },
  {
    "name": "개나리",
    "brand" : "한솥",
    "category": "korean"
  },
  {
    "name": "돈까스도련님 고기고기",
    "brand" : "한솥",
    "category": "korean"
  },
  {
    "name": "탕수육도련님 고기고기",
    "brand" : "한솥",
    "category": "korean"
  },
  {
    "name": "새치 고기고기",
    "brand" : "한솥",
    "category": "korean"
  },
  {
    "name": "돈치 고기고기",
    "brand" : "한솥",
    "category": "korean"
  },
  {
    "name": "카츠카츠",
    "brand" : "한솥",
    "category": "korean"
  },
  {
    "name": "숫불직화구이",
    "brand" : "한솥",
    "category": "korean"
  },
  {
    "name": "소불고기",
    "brand" : "한솥",
    "category": "korean"
  },
  {
    "name": "메가치킨제육",
    "brand" : "한솥",
    "category": "korean"
  },
  {
    "name": "칠리 찹쌀탕수육도련님",
    "brand" : "한솥",
    "category": "korean"
  },
  {
    "name": "동백",
    "brand" : "한솥",
    "category": "korean"
  },
  {
    "name": "치킨제육",
    "brand" : "한솥",
    "category": "korean"
  },
  {
    "name": "돈까스도련님",
    "brand" : "한솥",
    "category": "korean"
  },
  {
    "name": "제육볶음",
    "brand" : "한솥",
    "category": "korean"
  },
  {
    "name": "돈치스팸",
    "brand" : "한솥",
    "category": "korean"
  },
  {
    "name": "송정식 떡갈비",
    "brand" : "한솥",
    "category": "korean"
  },
  {
    "name": "빅새치마요",
    "brand" : "한솥",
    "category": "korean"
  },
  {
    "name": "새치마요",
    "brand" : "한솥",
    "category": "korean"
  },
  {
    "name": "메가스팸마요",
    "brand" : "한솥",
    "category": "korean"
  },
  {
    "name": "스팸마요",
    "brand" : "한솥",
    "category": "korean"
  },
  {
    "name": "메가치킨마요",
    "brand" : "한솥",
    "category": "korean"
  },
  {
    "name": "왕치킨마요",
    "brand" : "한솥",
    "category": "korean"
  },
  {
    "name": "빅치킨마요",
    "brand" : "한솥",
    "category": "korean"
  },
  {
    "name": "치킨마요",
    "brand" : "한솥",
    "category": "korean"
  },
  {
    "name": "참치마요",
    "brand" : "한솥",
    "category": "korean"
  },
  {
    "name": "돈치마요",
    "brand" : "한솥",
    "category": "korean"
  },
  {
    "name": "돈까스 카레",
    "brand" : "한솥",
    "category": "korean"
  },
  {
    "name": "잡채볶음밥",
    "brand" : "한솥",
    "category": "korean"
  },
  {
    "name": "스팸 김치볶음밥",
    "brand" : "한솥",
    "category": "korean"
  },
  {
    "name": "김치볶음밥",
    "brand" : "한솥",
    "category": "korean"
  },
  {
    "name": "스팸 철판볶음밥",
    "brand" : "한솥",
    "category": "korean"
  },
  {
    "name": "소불고기 철판볶음밥",
    "brand" : "한솥",
    "category": "korean"
  },
  {
    "name": "묵은지 김치찌개",
    "brand" : "한솥",
    "category": "korean"
  },
  {
    "name": "김치 부대찌개",
    "brand" : "한솥",
    "category": "korean"
  },
  {
    "name": "핫 치즈 닭갈비 덮밥",
    "brand" : "한솥",
    "category": "korean"
  },
  {
    "name": "오리지널 치즈\n닭갈비덮밥",
    "brand" : "한솥",
    "category": "korean"
  },
  {
    "name": "숯불직화구이 덮밥",
    "brand" : "한솥",
    "category": "korean"
  },
  {
    "name": "마파두부 덮밥",
    "brand" : "한솥",
    "category": "korean"
  },
  {
    "name": "왕카레돈까스 덮밥",
    "brand" : "한솥",
    "category": "korean"
  },
  {
    "name": "새우돈까스 덮밥",
    "brand" : "한솥",
    "category": "korean"
  },
  {
    "name": "돈까스 덮밥",
    "brand" : "한솥",
    "category": "korean"
  },
  {
    "name": "아보카도 소불고기\n명란 비빔밥",
    "brand" : "한솥",
    "category": "korean"
  },
  {
    "name": "소불고기 감초고추장 비빔밥",
    "brand" : "한솥",
    "category": "korean"
  },
  {
    "name": "시골제육 두부강된장 비빔밥",
    "brand" : "한솥",
    "category": "korean"
  },
  {
    "name": "참치야채 감초고추장 비빔밥",
    "brand" : "한솥",
    "category": "korean"
  },
  {
    "name": "물냉면",
    "brand" : "보승회관",
    "category": "korean"
  },
  {
    "name": "비빔냉면",
    "brand" : "보승회관",
    "category": "korean"
  },
  {
    "name": "빨간육개장",
    "brand" : "육개본가",
    "category": "korean"
  },
  {
    "name": "하얀육개장",
    "brand" : "육개본가",
    "category": "korean"
  },
  {
    "name": "육개장라면",
    "brand" : "육개본가",
    "category": "korean"
  },
  {
    "name": "육개장칼국수",
    "brand" : "육개본가",
    "category": "korean"
  },
  {
    "name": "전주비빔밥",
    "brand" : "전주집",
    "category": "korean"
  },
  {
    "name": "돌솥비빔밥",
    "brand" : "전주집",
    "category": "korean"
  },
  {
    "name": "뚝배기불고기",
    "brand" : "전주집",
    "category": "korean"
  },
  {
    "name": "제육볶음",
    "brand" : "전주집",
    "category": "korean"
  },
  {
    "name": "전주육회비빔밥",
    "brand" : "전주집",
    "category": "korean"
  },
  {
    "name": "고등어자반구이",
    "brand" : "전주집",
    "category": "korean"
  },
  {
    "name": "콩나물국밥",
    "brand" : "전주집",
    "category": "korean"
  },
  {
    "name": "제육 + 차돌된장찌개",
    "brand" : "김정육",
    "category": "korean"
  },
  {
    "name": "제육 + 생고기김치찌개",
    "brand" : "김정육",
    "category": "korean"
  },
  {
    "name": "차돌된장",
    "brand" : "기사님식당",
    "category": "korean"
  },
  {
    "name": "제육볶음",
    "brand" : "기사님식당",
    "category": "korean"
  },
  {
    "name": "한돈김치찌개",
    "brand" : "기사님식당",
    "category": "korean"
  },
  {
    "name": "동태탕",
    "brand" : "기사님식당",
    "category": "korean"
  },
  {
    "name": "소불고기",
    "brand" : "기사님식당",
    "category": "korean"
  },
  {
    "name": "해물순두부",
    "brand" : "기사님식당",
    "category": "korean"
  },
  {
    "name": "콩비지",
    "brand" : "새벽집",
    "category": "korean"
  },
  {
    "name": "김치찌개",
    "brand" : "새벽집",
    "category": "korean"
  },
  {
    "name": "버섯된장",
    "brand" : "새벽집",
    "category": "korean"
  },
  {
    "name": "생청국장",
    "brand" : "새벽집",
    "category": "korean"
  },
  {
    "name": "차돌버섯된장",
    "brand" : "새벽집",
    "category": "korean"
  },
  {
    "name": "강된장비빔밥",
    "brand" : "새벽집",
    "category": "korean"
  },
  {
    "name": "황태순두부",
    "brand" : "새벽집",
    "category": "korean"
  },
  {
    "name": "불고기순두부",
    "brand" : "새벽집",
    "category": "korean"
  },
  {
    "name": "해물순두부",
    "brand" : "새벽집",
    "category": "korean"
  },
  {
    "name": "들깨순두부",
    "brand" : "새벽집",
    "category": "korean"
  },
  {
    "name": "순대국",
    "brand" : "일성옥",
    "category": "korean"
  },
  {
    "name": "동해안오징어볶음",
    "brand" : "일성옥",
    "category": "korean"
  },
  {
    "name": "육개장",
    "brand" : "일성옥",
    "category": "korean"
  },
  {
    "name": "양선지해장국",
    "brand" : "일성옥",
    "category": "korean"
  },
  {
    "name": "된장찌개",
    "brand" : "또순이네집",
    "category": "korean"
  },
  {
    "name": "돼지김치구이",
    "brand" : "삼산회관",
    "category": "korean"
  },
  {
    "name": "돼지김치찌개",
    "brand" : "삼산회관",
    "category": "korean"
  },
  {
    "name": "참치김치찌개",
    "brand" : "삼산회관",
    "category": "korean"
  },
  {
    "name": "갈비탕",
    "brand" : "강강술래",
    "category": "korean"
  },
  {
    "name": "물냉면",
    "brand" : "강강술래",
    "category": "korean"
  },
  {
    "name": "차돌된장찌개",
    "brand" : "강강술래",
    "category": "korean"
  },
  {
    "name": "도가니곰탕",
    "brand" : "강강술래",
    "category": "korean"
  },
  {
    "name": "한우 우족탕",
    "brand" : "강강술래",
    "category": "korean"
  },
  {
    "name": "한우육회비빔밥",
    "brand" : "강강술래",
    "category": "korean"
  },
  {
    "name": "육회돌솥비빔밥",
    "brand" : "강강술래",
    "category": "korean"
  },
  {
    "name": "통돼지두루치키",
    "brand" : "돼지집 통돼지두루치기",
    "category": "korean"
  },
  {
    "name": "삼계탕",
    "brand" : "당산마루",
    "category": "korean"
  },
  {
    "name": "닭칼국수",
    "brand" : "다래칼국수",
    "category": "korean"
  },
  {
    "name": "얼큰칼국수",
    "brand" : "다래칼국수",
    "category": "korean"
  },
  {
    "name": "매생이 칼국수",
    "brand" : "다래칼국수",
    "category": "korean"
  },
  {
    "name": "멸치 칼국수",
    "brand" : "다래칼국수",
    "category": "korean"
  },
  {
    "name": "짜장면",
    "brand" : "강사부",
    "category": "china"
  },
  {
    "name": "고추쟁반짜장",
    "brand" : "강사부",
    "category": "china"
  },
  {
    "name": "짬뽕",
    "brand" : "강사부",
    "category": "china"
  },
  {
    "name": "새우볶음밥",
    "brand" : "강사부",
    "category": "china"
  },
  {
    "name": "잡채밥",
    "brand" : "강사부",
    "category": "china"
  },
  {
    "name": "짬뽕밥",
    "brand" : "강사부",
    "category": "china"
  },
  {
    "name": "호랭이 유니짜장",
    "brand" : "호랭이반점",
    "category": "china"
  },
  {
    "name": "사천 유니짜장",
    "brand" : "호랭이반점",
    "category": "china"
  },
  {
    "name": "호랭이 고기짬뽕",
    "brand" : "호랭이반점",
    "category": "china"
  },
  {
    "name": "호랭이 해물짬뽕",
    "brand" : "호랭이반점",
    "category": "china"
  },
  {
    "name": "짜장면",
    "brand" : "당산진미관",
    "category": "china"
  },
  {
    "name": "고추 짜장면",
    "brand" : "당산진미관",
    "category": "china"
  },
  {
    "name": "간 짜장면",
    "brand" : "당산진미관",
    "category": "china"
  },
  {
    "name": "해물쟁반 짜장",
    "brand" : "당산진미관",
    "category": "china"
  },
  {
    "name": "진미삼선 짬뽕",
    "brand" : "당산진미관",
    "category": "china"
  },
  {
    "name": "매운고추 짬뽕",
    "brand" : "당산진미관",
    "category": "china"
  },
  {
    "name": "진미차돌 짬뽕",
    "brand" : "당산진미관",
    "category": "china"
  },
  {
    "name": "차돌마라 짬뽕",
    "brand" : "당산진미관",
    "category": "china"
  },
  {
    "name": "해물볶음 짬뽕",
    "brand" : "당산진미관",
    "category": "china"
  },
  {
    "name": "백짬뽕",
    "brand" : "당산진미관",
    "category": "china"
  },
  {
    "name": "볶음밥",
    "brand" : "당산진미관",
    "category": "china"
  },
  {
    "name": "새우 볶음밥",
    "brand" : "당산진미관",
    "category": "china"
  },
  {
    "name": "XO게살 볶음밥",
    "brand" : "당산진미관",
    "category": "china"
  },
  {
    "name": "콩짜장",
    "brand" : "최강면의전설",
    "category": "china"
  },
  {
    "name": "해물간짜장",
    "brand" : "최강면의전설",
    "category": "china"
  },
  {
    "name": "해물짬뽕",
    "brand" : "최강면의전설",
    "category": "china"
  },
  {
    "name": "차돌박이짬뽕",
    "brand" : "최강면의전설",
    "category": "china"
  },
  {
    "name": "해물짬뽕밥",
    "brand" : "최강면의전설",
    "category": "china"
  },
  {
    "name": "숙주소고기탕면",
    "brand" : "최강면의전설",
    "category": "china"
  },
  {
    "name": "순두부짬뽕밥",
    "brand" : "최강면의전설",
    "category": "china"
  },
  {
    "name": "해물쟁반짜장",
    "brand" : "최강면의전설",
    "category": "china"
  },
  {
    "name": "잡채밥",
    "brand" : "최강면의전설",
    "category": "china"
  },
  {
    "name": "잡탕밥",
    "brand" : "최강면의전설",
    "category": "china"
  },
  {
    "name": "유산슬밥",
    "brand" : "최강면의전설",
    "category": "china"
  },
  {
    "name": "짜장면",
    "brand" : "호연",
    "category": "china"
  },
  {
    "name": "삼선간짜장",
    "brand" : "호연",
    "category": "china"
  },
  {
    "name": "짬뽕",
    "brand" : "호연",
    "category": "china"
  },
  {
    "name": "해산물짬뽕",
    "brand" : "호연",
    "category": "china"
  },
  {
    "name": "차돌박이짬뽕",
    "brand" : "호연",
    "category": "china"
  },
  {
    "name": "매운 돼지고기 볶음밥",
    "brand" : "호연",
    "category": "china"
  },
  {
    "name": "해산물 볶음밥",
    "brand" : "호연",
    "category": "china"
  },
  {
    "name": "마파두부밥",
    "brand" : "호연",
    "category": "china"
  },
  {
    "name": "새송이 덮밥",
    "brand" : "호연",
    "category": "china"
  },
  {
    "name": "짬뽕밥",
    "brand" : "호연",
    "category": "china"
  },
  {
    "name": "1955 해쉬브라운",
    "brand" : "맥도날드",
    "category": "hamburger"
  },
  {
    "name": "불고기 해쉬브라운",
    "brand" : "맥도날드",
    "category": "hamburger"
  },
  {
    "name": "더블 쿼터파운더 치즈",
    "brand" : "맥도날드",
    "category": "hamburger"
  },
  {
    "name": "쿼터파운더 치즈",
    "brand" : "맥도날드",
    "category": "hamburger"
  },
  {
    "name": "빅맥",
    "brand" : "맥도날드",
    "category": "hamburger"
  },
  {
    "name": "맥크리스피 디럭스 버거",
    "brand" : "맥도날드",
    "category": "hamburger"
  },
  {
    "name": "맥크리스피 클래식 버거",
    "brand" : "맥도날드",
    "category": "hamburger"
  },
  {
    "name": "맥스파이시 상하이 버거",
    "brand" : "맥도날드",
    "category": "hamburger"
  },
  {
    "name": "1955 버거",
    "brand" : "맥도날드",
    "category": "hamburger"
  },
  {
    "name": "맥치킨 모짜렐라",
    "brand" : "맥도날드",
    "category": "hamburger"
  },
  {
    "name": "맥치킨",
    "brand" : "맥도날드",
    "category": "hamburger"
  },
  {
    "name": "더블 불고기 버거",
    "brand" : "맥도날드",
    "category": "hamburger"
  },
  {
    "name": "에그 불고기 버거",
    "brand" : "맥도날드",
    "category": "hamburger"
  },
  {
    "name": "불고기 버거",
    "brand" : "맥도날드",
    "category": "hamburger"
  },
  {
    "name": "슈슈 버거",
    "brand" : "맥도날드",
    "category": "hamburger"
  },
  {
    "name": "슈비 버거",
    "brand" : "맥도날드",
    "category": "hamburger"
  },
  {
    "name": "베이컨 토마토 디럭스",
    "brand" : "맥도날드",
    "category": "hamburger"
  },
  {
    "name": "치즈버거",
    "brand" : "맥도날드",
    "category": "hamburger"
  },
  {
    "name": "더블 치즈버거",
    "brand" : "맥도날드",
    "category": "hamburger"
  },
  {
    "name": "트리플 치즈버거",
    "brand" : "맥도날드",
    "category": "hamburger"
  },
  {
    "name": "햄버거",
    "brand" : "맥도날드",
    "category": "hamburger"
  },
  {
    "name": "햄버거",
    "brand" : "맥도날드",
    "category": "hamburger"
  },
  {
    "name": "블랙바비큐콰트로치즈와퍼",
    "brand" : "버거킹",
    "category": "hamburger"
  },
  {
    "name": "블랙바비큐와퍼",
    "brand" : "버거킹",
    "category": "hamburger"
  },
  {
    "name": "몬스터와퍼",
    "brand" : "버거킹",
    "category": "hamburger"
  },
  {
    "name": "베이컨치즈와퍼",
    "brand" : "버거킹",
    "category": "hamburger"
  },
  {
    "name": "콰트로치즈와퍼",
    "brand" : "버거킹",
    "category": "hamburger"
  },
  {
    "name": "통새우와퍼",
    "brand" : "버거킹",
    "category": "hamburger"
  },
  {
    "name": "불맛 더블치즈버거",
    "brand" : "버거킹",
    "category": "hamburger"
  },
  {
    "name": "불맛 더블치즈앤베이컨버거",
    "brand" : "버거킹",
    "category": "hamburger"
  },
  {
    "name": "와퍼",
    "brand" : "버거킹",
    "category": "hamburger"
  },
  {
    "name": "치즈와퍼",
    "brand" : "버거킹",
    "category": "hamburger"
  },
  {
    "name": "불고기와퍼",
    "brand" : "버거킹",
    "category": "hamburger"
  },
  {
    "name": "갈릭불고기와퍼",
    "brand" : "버거킹",
    "category": "hamburger"
  },
  {
    "name": "핫칠리러버",
    "brand" : "버거킹",
    "category": "hamburger"
  },
  {
    "name": "핫칠리러버 더블",
    "brand" : "버거킹",
    "category": "hamburger"
  },
  {
    "name": "핫칠리러버 몬스터",
    "brand" : "버거킹",
    "category": "hamburger"
  },
  {
    "name": "더블비프불고기버거",
    "brand" : "버거킹",
    "category": "hamburger"
  },
  {
    "name": "치킨킹BLT",
    "brand" : "버거킹",
    "category": "hamburger"
  },
  {
    "name": "치킨킹",
    "brand" : "버거킹",
    "category": "hamburger"
  },
  {
    "name": "비프&슈림프버거",
    "brand" : "버거킹",
    "category": "hamburger"
  },
  {
    "name": "통새우슈림프버거",
    "brand" : "버거킹",
    "category": "hamburger"
  },
  {
    "name": "슈림프버거",
    "brand" : "버거킹",
    "category": "hamburger"
  },
  {
    "name": "롱치킨버거",
    "brand" : "버거킹",
    "category": "hamburger"
  },
  {
    "name": "바비큐치킨버거",
    "brand" : "버거킹",
    "category": "hamburger"
  },
  {
    "name": "치킨버거",
    "brand" : "버거킹",
    "category": "hamburger"
  },
  {
    "name": "블랙라벨폴인치즈",
    "brand" : "KFC",
    "category": "hamburger"
  },
  {
    "name": "징거더블다운",
    "brand" : "KFC",
    "category": "hamburger"
  },
  {
    "name": "켄터키통다리스파이시",
    "brand" : "KFC",
    "category": "hamburger"
  },
  {
    "name": "징거BLT",
    "brand" : "KFC",
    "category": "hamburger"
  },
  {
    "name": "징거타워",
    "brand" : "KFC",
    "category": "hamburger"
  },
  {
    "name": "클래식징거통다리",
    "brand" : "KFC",
    "category": "hamburger"
  },
  {
    "name": "징거",
    "brand" : "KFC",
    "category": "hamburger"
  },
  {
    "name": "불고기",
    "brand" : "KFC",
    "category": "hamburger"
  },
  {
    "name": "왕돈까스버거",
    "brand" : "롯데리아",
    "category": "hamburger"
  },
  {
    "name": "매운 왕돈까스버거",
    "brand" : "롯데리아",
    "category": "hamburger"
  },
  {
    "name": "전주 비빔라이스 버거",
    "brand" : "롯데리아",
    "category": "hamburger"
  },
  {
    "name": "새우베이컨버거",
    "brand" : "롯데리아",
    "category": "hamburger"
  },
  {
    "name": "불고기 베이컨",
    "brand" : "롯데리아",
    "category": "hamburger"
  },
  {
    "name": "더블 한우불고기",
    "brand" : "롯데리아",
    "category": "hamburger"
  },
  {
    "name": "한우불고기",
    "brand" : "롯데리아",
    "category": "hamburger"
  },
  {
    "name": "더블 클래식치즈버거",
    "brand" : "롯데리아",
    "category": "hamburger"
  },
  {
    "name": "더블 치킨버거",
    "brand" : "롯데리아",
    "category": "hamburger"
  },
  {
    "name": "더블 데리버거",
    "brand" : "롯데리아",
    "category": "hamburger"
  },
  {
    "name": "빅불",
    "brand" : "롯데리아",
    "category": "hamburger"
  },
  {
    "name": "불고기버거",
    "brand" : "롯데리아",
    "category": "hamburger"
  },
  {
    "name": "모짜렐라 인 더 버거\n베이컨",
    "brand" : "롯데리아",
    "category": "hamburger"
  },
  {
    "name": "DoubleX2",
    "brand" : "롯데리아",
    "category": "hamburger"
  },
  {
    "name": "사각새우더블버거",
    "brand" : "롯데리아",
    "category": "hamburger"
  },
  {
    "name": "새우버거",
    "brand" : "롯데리아",
    "category": "hamburger"
  },
  {
    "name": "리아미라클II",
    "brand" : "롯데리아",
    "category": "hamburger"
  },
  {
    "name": "더블리아미라클II",
    "brand" : "롯데리아",
    "category": "hamburger"
  },
  {
    "name": "핫크리스피버거",
    "brand" : "롯데리아",
    "category": "hamburger"
  },
  {
    "name": "클랙식치즈버거",
    "brand" : "롯데리아",
    "category": "hamburger"
  },
  {
    "name": "T-REX",
    "brand" : "롯데리아",
    "category": "hamburger"
  },
  {
    "name": "치즈버거",
    "brand" : "롯데리아",
    "category": "hamburger"
  },
  {
    "name": "데리버거",
    "brand" : "롯데리아",
    "category": "hamburger"
  },
  {
    "name": "싸이버거",
    "brand" : "맘스터치",
    "category": "hamburger"
  },
  {
    "name": "불불불불싸이버거",
    "brand" : "맘스터치",
    "category": "hamburger"
  },
  {
    "name": "골든맥앤치즈치킨버거",
    "brand" : "맘스터치",
    "category": "hamburger"
  },
  {
    "name": "골든맥앤치즈비프버거",
    "brand" : "맘스터치",
    "category": "hamburger"
  },
  {
    "name": "싸이플렉스버거",
    "brand" : "맘스터치",
    "category": "hamburger"
  },
  {
    "name": "언빌리버블버거",
    "brand" : "맘스터치",
    "category": "hamburger"
  },
  {
    "name": "인크레더블버거",
    "brand" : "맘스터치",
    "category": "hamburger"
  },
  {
    "name": "딥치즈버거",
    "brand" : "맘스터치",
    "category": "hamburger"
  },
  {
    "name": "브리스킷 바비Q",
    "brand" : "도미노",
    "category": "pizza"
  },
  {
    "name": "치즈 크레이프 샌드",
    "brand" : "도미노",
    "category": "pizza"
  },
  {
    "name": "아보카도 새우",
    "brand" : "도미노",
    "category": "pizza"
  },
  {
    "name": "와일드 와일드 웨스트\n스테이크",
    "brand" : "도미노",
    "category": "pizza"
  },
  {
    "name": "블랙타이거 슈림프",
    "brand" : "도미노",
    "category": "pizza"
  },
  {
    "name": "블록버스터4",
    "brand" : "도미노",
    "category": "pizza"
  },
  {
    "name": "베스트 콰트로",
    "brand" : "도미노",
    "category": "pizza"
  },
  {
    "name": "포테이토",
    "brand" : "도미노",
    "category": "pizza"
  },
  {
    "name": "뉴욕 오리진",
    "brand" : "도미노",
    "category": "pizza"
  },
  {
    "name": "리얼불고기",
    "brand" : "도미노",
    "category": "pizza"
  },
  {
    "name": "우리 고구마",
    "brand" : "도미노",
    "category": "pizza"
  },
  {
    "name": "슈퍼디럭스",
    "brand" : "도미노",
    "category": "pizza"
  },
  {
    "name": "슈퍼슈프림",
    "brand" : "도미노",
    "category": "pizza"
  },
  {
    "name": "베이컨체더치즈",
    "brand" : "도미노",
    "category": "pizza"
  },
  {
    "name": "페퍼로니",
    "brand" : "도미노",
    "category": "pizza"
  },
  {
    "name": "치즈",
    "brand" : "도미노",
    "category": "pizza"
  },
  {
    "name": "맥콘 베이컨",
    "brand" : "도미노",
    "category": "pizza"
  },
  {
    "name": "클래식 리코타",
    "brand" : "도미노",
    "category": "pizza"
  },
  {
    "name": "맵퍼로니",
    "brand" : "도미노",
    "category": "pizza"
  },
  {
    "name": "마라 불고기",
    "brand" : "도미노",
    "category": "pizza"
  },
  {
    "name": "소시지 맥스",
    "brand" : "도미노",
    "category": "pizza"
  },
  {
    "name": "씨푸드킹",
    "brand" : "피자헛",
    "category": "pizza"
  },
  {
    "name": "수퍼슈프림",
    "brand" : "피자헛",
    "category": "pizza"
  },
  {
    "name": "콤비네이션",
    "brand" : "피자헛",
    "category": "pizza"
  },
  {
    "name": "페페로니 러버",
    "brand" : "피자헛",
    "category": "pizza"
  },
  {
    "name": "갈릭버터쉬림프",
    "brand" : "피자헛",
    "category": "pizza"
  },
  {
    "name": "치즈킹",
    "brand" : "피자헛",
    "category": "pizza"
  },
  {
    "name": "더블치즈\n티본스테이크",
    "brand" : "피자헛",
    "category": "pizza"
  },
  {
    "name": "씨푸드킹",
    "brand" : "피자헛",
    "category": "pizza"
  },
  {
    "name": "립스테이크",
    "brand" : "피자헛",
    "category": "pizza"
  },
  {
    "name": "베이컨포테이토",
    "brand" : "피자헛",
    "category": "pizza"
  },
  {
    "name": "직화불고기",
    "brand" : "피자헛",
    "category": "pizza"
  },
  {
    "name": "LA BBQ 불고기",
    "brand" : "피자헛",
    "category": "pizza"
  },
  {
    "name": "콤비네이션",
    "brand" : "피자헛",
    "category": "pizza"
  },
  {
    "name": "멜팅치즈 포테이토",
    "brand" : "피자헛",
    "category": "pizza"
  },
  {
    "name": "알로하 하와이",
    "brand" : "피자헛",
    "category": "pizza"
  },
  {
    "name": "할라 페페로니 러버",
    "brand" : "피자헛",
    "category": "pizza"
  },
  {
    "name": "프레시 마르게리따",
    "brand" : "피자헛",
    "category": "pizza"
  },
  {
    "name": "오징어보쌈",
    "brand" : "이조보쌈",
    "category": "bossam"
  },
  {
    "name": "보쌈",
    "brand" : "이조보쌈",
    "category": "bossam"
  },
  {
    "name": "족발",
    "brand" : "이필당족발보쌈",
    "category": "bossam"
  },
  {
    "name": "보쌈",
    "brand" : "이필당족발보쌈",
    "category": "bossam"
  },
  {
    "name": "족발",
    "brand" : "오목집",
    "category": "bossam"
  },
  {
    "name": "모듬족발",
    "brand" : "오목집",
    "category": "bossam"
  },
  {
    "name": "냉채족발",
    "brand" : "오목집",
    "category": "bossam"
  },
  {
    "name": "송가네족발",
    "brand" : "송가네보쌈족발",
    "category": "bossam"
  },
  {
    "name": "불족발",
    "brand" : "송가네보쌈족발",
    "category": "bossam"
  },
  {
    "name": "마늘족발",
    "brand" : "송가네보쌈족발",
    "category": "bossam"
  },
  {
    "name": "송가넵보쌈",
    "brand" : "송가네보쌈족발",
    "category": "bossam"
  },
  {
    "name": "마늘보쌈",
    "brand" : "송가네보쌈족발",
    "category": "bossam"
  },
  {
    "name": "족발",
    "brand" : "대만족",
    "category": "bossam"
  },
  {
    "name": "불족발",
    "brand" : "대만족",
    "category": "bossam"
  },
  {
    "name": "반반",
    "brand" : "대만족",
    "category": "bossam"
  },
  {
    "name": "마늘족발",
    "brand" : "대만족",
    "category": "bossam"
  },
  {
    "name": "겉저리보쌈",
    "brand" : "대만족",
    "category": "bossam"
  },
  {
    "name": "마늘보쌈",
    "brand" : "대만족",
    "category": "bossam"
  },
  {
    "name": "족발",
    "brand" : "허브족발",
    "category": "bossam"
  },
  {
    "name": "매콤족발",
    "brand" : "허브족발",
    "category": "bossam"
  },
  {
    "name": "아구찜",
    "brand" : "배영만당진아구동태찜탕",
    "category": "jjim"
  },
  {
    "name": "낙지찜",
    "brand" : "배영만당진아구동태찜탕",
    "category": "jjim"
  },
  {
    "name": "해물찜",
    "brand" : "배영만당진아구동태찜탕",
    "category": "jjim"
  },
  {
    "name": "황태찜",
    "brand" : "배영만당진아구동태찜탕",
    "category": "jjim"
  },
  {
    "name": "대구볼찜",
    "brand" : "배영만당진아구동태찜탕",
    "category": "jjim"
  },
  {
    "name": "동태찜",
    "brand" : "김영희동태찜",
    "category": "jjim"
  },
  {
    "name": "해품닭 한판",
    "brand" : "만나계",
    "category": "jjim"
  },
  {
    "name": "차품닭 한판",
    "brand" : "만나계",
    "category": "jjim"
  },
  {
    "name": "곱품닭 한판",
    "brand" : "만나계",
    "category": "jjim"
  },
  {
    "name": "곱도리볶음",
    "brand" : "만나계",
    "category": "jjim"
  },
  {
    "name": "닭볶음탕",
    "brand" : "만나계",
    "category": "jjim"
  },
  {
    "name": "간장찜닭",
    "brand" : "만나계",
    "category": "jjim"
  },
  {
    "name": "로제찜닭",
    "brand" : "만나계",
    "category": "jjim"
  },
  {
    "name": "우거지감자탕",
    "brand" : "선유도감자탕",
    "category": "jjim"
  },
  {
    "name": "묵은지감자탕",
    "brand" : "선유도감자탕",
    "category": "jjim"
  },
  {
    "name": "뼈다귀해장국",
    "brand" : "선유도감자탕",
    "category": "jjim"
  },
  {
    "name": "양선지 해장국",
    "brand" : "신가양평해장",
    "category": "jjim"
  },
  {
    "name": "뼈해장국",
    "brand" : "신가양평해장",
    "category": "jjim"
  },
  {
    "name": "내장탕",
    "brand" : "신가양평해장",
    "category": "jjim"
  },
  {
    "name": "우거지감자탕",
    "brand" : "신가양평해장",
    "category": "jjim"
  },
  {
    "name": "순대국밥",
    "brand" : "보승회관",
    "category": "jjim"
  },
  {
    "name": "수육국밥",
    "brand" : "보승회관",
    "category": "jjim"
  },
  {
    "name": "내장국밥",
    "brand" : "보승회관",
    "category": "jjim"
  },
  {
    "name": "뼈해장국",
    "brand" : "보승회관",
    "category": "jjim"
  },
  {
    "name": "순대 지옥국밥",
    "brand" : "보승회관",
    "category": "jjim"
  },
  {
    "name": "수육 지옥국밥",
    "brand" : "보승회관",
    "category": "jjim"
  },
  {
    "name": "오소리 국밥",
    "brand" : "보승회관",
    "category": "jjim"
  },
  {
    "name": "삼계탕",
    "brand" : "보승회관",
    "category": "jjim"
  },
  {
    "name": "순대국",
    "brand" : "병천황토방순대",
    "category": "jjim"
  },
  {
    "name": "선지국밥",
    "brand" : "병천황토방순대",
    "category": "jjim"
  },
  {
    "name": "내장국밥",
    "brand" : "병천황토방순대",
    "category": "jjim"
  },
  {
    "name": "감자탕",
    "brand" : "병천황토방순대",
    "category": "jjim"
  },
  {
    "name": "양푼이 동태탕",
    "brand" : "양푼이동태탕",
    "category": "jjim"
  },
  {
    "name": "양푼이 생태탕",
    "brand" : "양푼이동태탕",
    "category": "jjim"
  },
  {
    "name": "생대구탕",
    "brand" : "양푼이동태탕",
    "category": "jjim"
  },
  {
    "name": "코다리찜",
    "brand" : "양푼이동태탕",
    "category": "jjim"
  },
  {
    "name": "갈치조림",
    "brand" : "양푼이동태탕",
    "category": "jjim"
  },
  {
    "name": "동태전골",
    "brand" : "양푼이동태탕",
    "category": "jjim"
  },
  {
    "name": "동태해물찜",
    "brand" : "양푼이동태탕",
    "category": "jjim"
  },
  {
    "name": "아구찜",
    "brand" : "양푼이동태탕",
    "category": "jjim"
  },
  {
    "name": "대구탕",
    "brand" : "원대구탕",
    "category": "jjim"
  },
  {
    "name": "대구지리",
    "brand" : "원대구탕",
    "category": "jjim"
  },
  {
    "name": "동태탕",
    "brand" : "원대구탕",
    "category": "jjim"
  },
  {
    "name": "대구볼찜",
    "brand" : "원대구탕",
    "category": "jjim"
  },
  {
    "name": "아구찜",
    "brand" : "원대구탕",
    "category": "jjim"
  },
  {
    "name": "로스카츠",
    "brand" : "카츠메종",
    "category": "asian"
  },
  {
    "name": "히레카츠",
    "brand" : "카츠메종",
    "category": "asian"
  },
  {
    "name": "특등심카츠",
    "brand" : "카츠메종",
    "category": "asian"
  },
  {
    "name": "소고기 규 나베",
    "brand" : "카츠메종",
    "category": "asian"
  },
  {
    "name": "김치카츠나베",
    "brand" : "카츠메종",
    "category": "asian"
  },
  {
    "name": "수제돈까스",
    "brand" : "바삭하게",
    "category": "asian"
  },
  {
    "name": "논꽃치즈돈까스",
    "brand" : "바삭하게",
    "category": "asian"
  },
  {
    "name": "매운수제돈까스",
    "brand" : "바삭하게",
    "category": "asian"
  },
  {
    "name": "마라탕",
    "brand" : "도미라마라탕",
    "category": "asian"
  },
  {
    "name": "마라샹궈",
    "brand" : "도미라마라탕",
    "category": "asian"
  },
  {
    "name": "돈코츠라멘",
    "brand" : "탄탄면공방",
    "category": "asian"
  },
  {
    "name": "네기차슈라멘",
    "brand" : "탄탄면공방",
    "category": "asian"
  },
  {
    "name": "차슈탄탄면",
    "brand" : "탄탄면공방",
    "category": "asian"
  },
  {
    "name": "카츠탄탄면",
    "brand" : "탄탄면공방",
    "category": "asian"
  },
  {
    "name": "마제소바",
    "brand" : "탄탄면공방",
    "category": "asian"
  },
  {
    "name": "육고명카레라이스",
    "brand" : "탄탄면공방",
    "category": "asian"
  },
  {
    "name": "치킨카레라이스",
    "brand" : "탄탄면공방",
    "category": "asian"
  },
  {
    "name": "돈카츠카레라이스",
    "brand" : "탄탄면공방",
    "category": "asian"
  },
  {
    "name": "탄탄면",
    "brand" : "탄탄면공방",
    "category": "asian"
  },
  {
    "name": "청양탄탄면",
    "brand" : "탄탄면공방",
    "category": "asian"
  },
  {
    "name": "사천탄탄면",
    "brand" : "탄탄면공방",
    "category": "asian"
  },
  {
    "name": "치즈탄탄면",
    "brand" : "탄탄면공방",
    "category": "asian"
  },
  {
    "name": "마라탕",
    "brand" : "딘딘향",
    "category": "asian"
  },
  {
    "name": "마라샹궈",
    "brand" : "딘딘향",
    "category": "asian"
  },
  {
    "name": "스페셜가츠동",
    "brand" : "백소정",
    "category": "asian"
  },
  {
    "name": "모짜렐라치즈카츠",
    "brand" : "백소정",
    "category": "asian"
  },
  {
    "name": "돈카츠",
    "brand" : "백소정",
    "category": "asian"
  },
  {
    "name": "자루소바",
    "brand" : "백소정",
    "category": "asian"
  },
  {
    "name": "가츠동",
    "brand" : "백소정",
    "category": "asian"
  },
  {
    "name": "에비가츠동",
    "brand" : "백소정",
    "category": "asian"
  },
  {
    "name": "오꼬노미카츠",
    "brand" : "백소정",
    "category": "asian"
  },
  {
    "name": "체다치즈카츠",
    "brand" : "백소정",
    "category": "asian"
  },
  {
    "name": "치즈모듬카츠",
    "brand" : "백소정",
    "category": "asian"
  },
  {
    "name": "마제소바",
    "brand" : "백소정",
    "category": "asian"
  },
  {
    "name": "카라이 마제소바",
    "brand" : "백소정",
    "category": "asian"
  },
  {
    "name": "에비텐어묵우동",
    "brand" : "백소정",
    "category": "asian"
  },
  {
    "name": "에비텐온소바",
    "brand" : "백소정",
    "category": "asian"
  },
  {
    "name": "냉소바",
    "brand" : "백소정",
    "category": "asian"
  },
  {
    "name": "양지 쌀국수",
    "brand" : "월남선생",
    "category": "asian"
  },
  {
    "name": "얼큰새우쌀국수",
    "brand" : "월남선생",
    "category": "asian"
  },
  {
    "name": "시원한 분짜",
    "brand" : "월남선생",
    "category": "asian"
  },
  {
    "name": "사골 쌀국수",
    "brand" : "월남선생",
    "category": "asian"
  },
  {
    "name": "숯불고기 쌀국수",
    "brand" : "월남선생",
    "category": "asian"
  },
  {
    "name": "새우 완탕쌀국수",
    "brand" : "월남선생",
    "category": "asian"
  },
  {
    "name": "치킨 팟타이",
    "brand" : "월남선생",
    "category": "asian"
  },
  {
    "name": "닭고기 나시고랭",
    "brand" : "월남선생",
    "category": "asian"
  },
  {
    "name": "푸팟퐁커리",
    "brand" : "월남선생",
    "category": "asian"
  },
  {
    "name": "껌승",
    "brand" : "포옹남",
    "category": "asian"
  },
  {
    "name": "쌀국수",
    "brand" : "포옹남",
    "category": "asian"
  },
  {
    "name": "분팃늬엉",
    "brand" : "포옹남",
    "category": "asian"
  },
  {
    "name": "짜조",
    "brand" : "포옹남",
    "category": "asian"
  },
  {
    "name": "뿌 팟 봉커리",
    "brand" : "생어거스틴",
    "category": "asian"
  },
  {
    "name": "왕새우 팟타이",
    "brand" : "생어거스틴",
    "category": "asian"
  },
  {
    "name": "똠얌꿍",
    "brand" : "생어거스틴",
    "category": "asian"
  },
  {
    "name": "느어 팟 남만호이",
    "brand" : "생어거스틴",
    "category": "asian"
  },
  {
    "name": "야채 카레라이스",
    "brand" : "BIRD PORK",
    "category": "asian"
  },
  {
    "name": "버드 카레라이스",
    "brand" : "BIRD PORK",
    "category": "asian"
  },
  {
    "name": "포크 카레라이스",
    "brand" : "BIRD PORK",
    "category": "asian"
  },
  {
    "name": "버드폭 카레라이스",
    "brand" : "BIRD PORK",
    "category": "asian"
  },
  {
    "name": "가츠동",
    "brand" : "BIRD PORK",
    "category": "asian"
  },
  {
    "name": "치즈 가츠동",
    "brand" : "BIRD PORK",
    "category": "asian"
  },
  {
    "name": "규동",
    "brand" : "BIRD PORK",
    "category": "asian"
  },
  {
    "name": "목포막회",
    "brand" : "목포횟집",
    "category": "sushi"
  },
  {
    "name": "대방어",
    "brand" : "목포횟집",
    "category": "sushi"
  },
  {
    "name": "대광어",
    "brand" : "목포횟집",
    "category": "sushi"
  },
  {
    "name": "우럭",
    "brand" : "목포횟집",
    "category": "sushi"
  },
  {
    "name": "도미",
    "brand" : "목포횟집",
    "category": "sushi"
  },
  {
    "name": "농어",
    "brand" : "목포횟집",
    "category": "sushi"
  },
  {
    "name": "물회",
    "brand" : "목포횟집",
    "category": "sushi"
  },
  {
    "name": "참돔",
    "brand" : "탐나종합어시장",
    "category": "sushi"
  },
  {
    "name": "봄도다리",
    "brand" : "탐나종합어시장",
    "category": "sushi"
  },
  {
    "name": "보리숭어",
    "brand" : "탐나종합어시장",
    "category": "sushi"
  },
  {
    "name": "모듬물회",
    "brand" : "탐나종합어시장",
    "category": "sushi"
  },
  {
    "name": "광어",
    "brand" : "탐나종합어시장",
    "category": "sushi"
  },
  {
    "name": "우럭",
    "brand" : "탐나종합어시장",
    "category": "sushi"
  },
  {
    "name": "연어",
    "brand" : "탐나종합어시장",
    "category": "sushi"
  },
  {
    "name": "방어와연어",
    "brand" : "당산곶",
    "category": "sushi"
  },
  {
    "name": "방어와석화",
    "brand" : "당산곶",
    "category": "sushi"
  },
  {
    "name": "방어와광어",
    "brand" : "당산곶",
    "category": "sushi"
  },
  {
    "name": "방어회",
    "brand" : "당산곶",
    "category": "sushi"
  },
  {
    "name": "곶 제철숙성회",
    "brand" : "당산곶",
    "category": "sushi"
  },
  {
    "name": "해물담음",
    "brand" : "당산곶",
    "category": "sushi"
  },
  {
    "name": "조골탕",
    "brand" : "당산곶",
    "category": "sushi"
  },
  {
    "name": "서울초밥(11pcs)",
    "brand" : "서울초밥",
    "category": "sushi"
  },
  {
    "name": "모둠초밥",
    "brand" : "서울초밥",
    "category": "sushi"
  },
  {
    "name": "익힌초밥",
    "brand" : "서울초밥",
    "category": "sushi"
  },
  {
    "name": "연어초밥",
    "brand" : "서울초밥",
    "category": "sushi"
  },
  {
    "name": "흰살초밥",
    "brand" : "서울초밥",
    "category": "sushi"
  },
  {
    "name": "서울 찌라시",
    "brand" : "서울초밥",
    "category": "sushi"
  },
  {
    "name": "모둠 찌라시",
    "brand" : "서울초밥",
    "category": "sushi"
  },
  {
    "name": "익힌 찌라시",
    "brand" : "서울초밥",
    "category": "sushi"
  },
  {
    "name": "흰살 찌라시",
    "brand" : "서울초밥",
    "category": "sushi"
  },
  {
    "name": "활어회덮밥",
    "brand" : "서울초밥",
    "category": "sushi"
  },
  {
    "name": "장어덮밥",
    "brand" : "서울초밥",
    "category": "sushi"
  },
  {
    "name": "즉석떡볶이",
    "brand" : "코너분식",
    "category": "bunsik"
  },
  {
    "name": "오뎅",
    "brand" : "코너분식",
    "category": "bunsik"
  },
  {
    "name": "라면",
    "brand" : "코너분식",
    "category": "bunsik"
  },
  {
    "name": "묵은지김밥",
    "brand" : "얌샘김밥",
    "category": "bunsik"
  },
  {
    "name": "묵은지참치김밥",
    "brand" : "얌샘김밥",
    "category": "bunsik"
  },
  {
    "name": "스팸에그김밥",
    "brand" : "얌샘김밥",
    "category": "bunsik"
  },
  {
    "name": "참치샐러드김밥",
    "brand" : "얌샘김밥",
    "category": "bunsik"
  },
  {
    "name": "날치알톡톡김밥",
    "brand" : "얌샘김밥",
    "category": "bunsik"
  },
  {
    "name": "얌샘김밥",
    "brand" : "얌샘김밥",
    "category": "bunsik"
  },
  {
    "name": "얌샘떡볶이",
    "brand" : "얌샘김밥",
    "category": "bunsik"
  },
  {
    "name": "라볶이",
    "brand" : "얌샘김밥",
    "category": "bunsik"
  },
  {
    "name": "얌샘라면",
    "brand" : "얌샘김밥",
    "category": "bunsik"
  },
  {
    "name": "계란말이김밥",
    "brand" : "진순자계란말이김밥",
    "category": "bunsik"
  },
  {
    "name": "짱아찌김밥",
    "brand" : "진순자계란말이김밥",
    "category": "bunsik"
  },
  {
    "name": "떡볶이",
    "brand" : "진순자계란말이김밥",
    "category": "bunsik"
  },
  {
    "name": "오뎅",
    "brand" : "진순자계란말이김밥",
    "category": "bunsik"
  },
  {
    "name": "우동",
    "brand" : "진순자계란말이김밥",
    "category": "bunsik"
  },
  {
    "name": "즉석우동",
    "brand" : "한신우동",
    "category": "bunsik"
  },
  {
    "name": "어묵우동",
    "brand" : "한신우동",
    "category": "bunsik"
  },
  {
    "name": "왕만두",
    "brand" : "한신우동",
    "category": "bunsik"
  },
  {
    "name": "쫄볶이",
    "brand" : "까치네분식",
    "category": "bunsik"
  },
  {
    "name": "쫄면",
    "brand" : "까치네분식",
    "category": "bunsik"
  },
  {
    "name": "비빔국수",
    "brand" : "까치네분식",
    "category": "bunsik"
  },
  {
    "name": "사골만둣국",
    "brand" : "까치네분식",
    "category": "bunsik"
  },
  {
    "name": "치즈쫄볶이",
    "brand" : "까치네분식",
    "category": "bunsik"
  },
  {
    "name": "떡볶이",
    "brand" : "까치네분식",
    "category": "bunsik"
  },
  {
    "name": "치즈떡볶이",
    "brand" : "까치네분식",
    "category": "bunsik"
  },
  {
    "name": "꼬시래기김밥",
    "brand" : "까치네분식",
    "category": "bunsik"
  },
  {
    "name": "멸추김밥",
    "brand" : "까치네분식",
    "category": "bunsik"
  },
  {
    "name": "참치김밥",
    "brand" : "까치네분식",
    "category": "bunsik"
  },
  {
    "name": "돈까스김밥",
    "brand" : "까치네분식",
    "category": "bunsik"
  },
  {
    "name": "고기손만두",
    "brand" : "까치네분식",
    "category": "bunsik"
  },
  {
    "name": "김치손만두",
    "brand" : "까치네분식",
    "category": "bunsik"
  },
  {
    "name": "야채김밥",
    "brand" : "까치네분식",
    "category": "bunsik"
  },
  {
    "name": "더블 닭다리살 박스",
    "brand" : "SALADY",
    "category": "salad"
  },
  {
    "name": "더블 닭가슴살 박스",
    "brand" : "SALADY",
    "category": "salad"
  },
  {
    "name": "더블 우삼겹 박스",
    "brand" : "SALADY",
    "category": "salad"
  },
  {
    "name": "에그마요 샌드",
    "brand" : "SALADY",
    "category": "salad"
  },
  {
    "name": "에그마요 랩",
    "brand" : "SALADY",
    "category": "salad"
  },
  {
    "name": "칠리베이컨 웜볼",
    "brand" : "SALADY",
    "category": "salad"
  },
  {
    "name": "멕시칸 랩",
    "brand" : "SALADY",
    "category": "salad"
  },
  {
    "name": "비프앤치즈 핫샌드위치",
    "brand" : "SALADY",
    "category": "salad"
  },
  {
    "name": "탄단지 샐러디",
    "brand" : "SALADY",
    "category": "salad"
  },
  {
    "name": "로스트닭다리살 샐러디",
    "brand" : "SALADY",
    "category": "salad"
  },
  {
    "name": "시저치킨 샐러디",
    "brand" : "SALADY",
    "category": "salad"
  },
  {
    "name": "콥샐러디",
    "brand" : "SALADY",
    "category": "salad"
  },
  {
    "name": "연어 샐러디",
    "brand" : "SALADY",
    "category": "salad"
  },
  {
    "name": "우삼겹메밀면 샐러디",
    "brand" : "SALADY",
    "category": "salad"
  },
  {
    "name": "비빔메밀면 샐러디",
    "brand" : "SALADY",
    "category": "salad"
  },
  {
    "name": "단호박두부 샐러디",
    "brand" : "SALADY",
    "category": "salad"
  },
  {
    "name": "지구식단 숯불직화 샐러디",
    "brand" : "SALADY",
    "category": "salad"
  },
  {
    "name": "오리지날 참치 포케",
    "brand" : "올라포케",
    "category": "salad"
  },
  {
    "name": "갈릭 쉬림프 포케",
    "brand" : "올라포케",
    "category": "salad"
  },
  {
    "name": "슈퍼 프로틴 포케",
    "brand" : "올라포케",
    "category": "salad"
  },
  {
    "name": "씨푸드 포케",
    "brand" : "올라포케",
    "category": "salad"
  },
  {
    "name": "연어 포케",
    "brand" : "올라포케",
    "category": "salad"
  },
  {
    "name": "스테이크 포케",
    "brand" : "올라포케",
    "category": "salad"
  },
  {
    "name": "운제오리포케",
    "brand" : "올라포케",
    "category": "salad"
  }
]